A Brief Introduction to R-Shiny and Dashboards
…
---

class: left, middle
# Data

Source: [Our World in Data](https://github.com/owid/covid-19-data)

```R
# A tibble: 161,909 × 67
   iso_code continent location    date       total_cases new_cases new_cases_smoothed total_deaths new_deaths
                                                               
 1 AFG      Asia      Afghanistan 2020-02-24           5         5             NA               NA         NA
 2 AFG      Asia      Afghanistan 2020-02-25           5         0             NA               NA         NA
 3 AFG      Asia      Afghanistan 2020-02-26           5         0             NA               NA         NA
 4 AFG      Asia      Afghanistan 2020-02-27           5         0             NA               NA         NA
 5 AFG      Asia      Afghanistan 2020-02-28           5         0             NA               NA         NA
 6 AFG      Asia      Afghanistan 2020-02-29           5         0              0.714           NA         NA
 7 AFG      Asia      Afghanistan 2020-03-01           5         0              0.714           NA         NA
 8 AFG      Asia      Afghanistan 2020-03-02           5         0              0               NA         NA
 9 AFG      Asia      Afghanistan 2020-03-03           5         0              0               NA         NA
10 AFG      Asia      Afghanistan 2020-03-04           5         0              0               NA         NA
# … with 161,899 more rows, and 58 more variables: new_deaths_smoothed , total_cases_per_million ,
#   new_cases_per_million , new_cases_smoothed_per_million , total_deaths_per_million ,
#   new_deaths_per_million , new_deaths_smoothed_per_million , reproduction_rate ,
#   icu_patients , icu_patients_per_million , hosp_patients , hosp_patients_per_million ,
#   weekly_icu_admissions , weekly_icu_admissions_per_million , weekly_hosp_admissions ,
#   weekly_hosp_admissions_per_million , new_tests , total_tests ,
#   total_tests_per_thousand , new_tests_per_thousand , new_tests_smoothed , …
```
…
